{
  "kind": "collectionType",
  "collectionName": "departamentos",
  "info": {
    "name": "departamentos",
    "description": ""
  },
  "options": {
    "increments": true,
    "timestamps": true,
    "draftAndPublish": true
  },
  "pluginOptions": {},
  "attributes": {
    "departamento": {
      "type": "string",
      "maxLength": 50
    },
    "sigla": {
      "type": "string",
      "maxLength": 10
    },
    "activo": {
      "type": "boolean",
      "default": true,
      "required": true
    }
  }
}
