{
  "routes": [
    {
      "method": "GET",
      "path": "/estados-chats",
      "handler": "estados-chat.find",
      "config": {
        "policies": []
      }
    },
    {
      "method": "GET",
      "path": "/estados-chats/count",
      "handler": "estados-chat.count",
      "config": {
        "policies": []
      }
    },
    {
      "method": "GET",
      "path": "/estados-chats/:id",
      "handler": "estados-chat.findOne",
      "config": {
        "policies": []
      }
    },
    {
      "method": "POST",
      "path": "/estados-chats",
      "handler": "estados-chat.create",
      "config": {
        "policies": []
      }
    },
    {
      "method": "PUT",
      "path": "/estados-chats/:id",
      "handler": "estados-chat.update",
      "config": {
        "policies": []
      }
    },
    {
      "method": "DELETE",
      "path": "/estados-chats/:id",
      "handler": "estados-chat.delete",
      "config": {
        "policies": []
      }
    }
  ]
}
