{
  "routes": [
    {
      "method": "GET",
      "path": "/clasificacion-riesgos",
      "handler": "clasificacion-riesgos.find",
      "config": {
        "policies": []
      }
    },
    {
      "method": "GET",
      "path": "/clasificacion-riesgos/count",
      "handler": "clasificacion-riesgos.count",
      "config": {
        "policies": []
      }
    },
    {
      "method": "GET",
      "path": "/clasificacion-riesgos/:id",
      "handler": "clasificacion-riesgos.findOne",
      "config": {
        "policies": []
      }
    },
    {
      "method": "POST",
      "path": "/clasificacion-riesgos",
      "handler": "clasificacion-riesgos.create",
      "config": {
        "policies": []
      }
    },
    {
      "method": "PUT",
      "path": "/clasificacion-riesgos/:id",
      "handler": "clasificacion-riesgos.update",
      "config": {
        "policies": []
      }
    },
    {
      "method": "DELETE",
      "path": "/clasificacion-riesgos/:id",
      "handler": "clasificacion-riesgos.delete",
      "config": {
        "policies": []
      }
    }
  ]
}
