{
  "routes": [
    {
      "method": "GET",
      "path": "/roles-ciris",
      "handler": "roles-ciri.find",
      "config": {
        "policies": []
      }
    },
    {
      "method": "GET",
      "path": "/roles-ciris/count",
      "handler": "roles-ciri.count",
      "config": {
        "policies": []
      }
    },
    {
      "method": "GET",
      "path": "/roles-ciris/:id",
      "handler": "roles-ciri.findOne",
      "config": {
        "policies": []
      }
    },
    {
      "method": "POST",
      "path": "/roles-ciris",
      "handler": "roles-ciri.create",
      "config": {
        "policies": []
      }
    },
    {
      "method": "PUT",
      "path": "/roles-ciris/:id",
      "handler": "roles-ciri.update",
      "config": {
        "policies": []
      }
    },
    {
      "method": "DELETE",
      "path": "/roles-ciris/:id",
      "handler": "roles-ciri.delete",
      "config": {
        "policies": []
      }
    }
  ]
}
