{
  "routes": [
    {
      "method": "GET",
      "path": "/horarios-atencions",
      "handler": "horarios-atencion.find",
      "config": {
        "policies": []
      }
    },
    {
      "method": "GET",
      "path": "/horarios-atencions/count",
      "handler": "horarios-atencion.count",
      "config": {
        "policies": []
      }
    },
    {
      "method": "GET",
      "path": "/horarios-atencions/:id",
      "handler": "horarios-atencion.findOne",
      "config": {
        "policies": []
      }
    },
    {
      "method": "POST",
      "path": "/horarios-atencions",
      "handler": "horarios-atencion.create",
      "config": {
        "policies": []
      }
    },
    {
      "method": "PUT",
      "path": "/horarios-atencions/:id",
      "handler": "horarios-atencion.update",
      "config": {
        "policies": []
      }
    },
    {
      "method": "DELETE",
      "path": "/horarios-atencions/:id",
      "handler": "horarios-atencion.delete",
      "config": {
        "policies": []
      }
    }
  ]
}
