{
  "kind": "collectionType",
  "collectionName": "solicitante_diagnosticos",
  "info": {
    "name": "solicitante_diagnostico"
  },
  "options": {
    "increments": true,
    "timestamps": true,
    "draftAndPublish": true
  },
  "pluginOptions": {},
  "attributes": {
    "avc": {
      "type": "string",
      "maxLength": 45
    },
    "nombre": {
      "type": "string",
      "maxLength": 50
    },
    "ap_paterno": {
      "type": "string",
      "maxLength": 50
    },
    "ap_materno": {
      "type": "string",
      "maxLength": 50
    },
    "telefono": {
      "type": "string",
      "maxLength": 50
    },
    "ci": {
      "type": "string",
      "maxLength": 20
    },
    "departamento": {
      "model": "departamentos"
    },
    "activo": {
      "type": "boolean",
      "default": true,
      "required": true
    }
  }
}
